UART_MODULE/UART.vcd
$date
	Sun Sep 29 22:41:33 2024
$end
$version
	ModelSim Version 10.1d
$end
$timescale
	1ps
$end
$scope module UART_tb $end
$var parameter 32 ! CLK_FOR_TX $end
$var parameter 32 " CLK_FOR_RX $end
$var reg 1 # TX_CLK_tb $end
$var reg 8 $ TX_IN_P_tb [7:0] $end
$var reg 1 % TX_IN_V_tb $end
$var reg 1 & RST_tb $end
$var reg 1 ' RX_IN_S_tb $end
$var reg 6 ( prescale_tb [5:0] $end
$var reg 1 ) RX_CLK_tb $end
$var wire 1 * TX_OUT_S_tb $end
$var wire 1 + TX_OUT_V_tb $end
$var wire 1 , RX_OUT_P_tb [7] $end
$var wire 1 - RX_OUT_P_tb [6] $end
$var wire 1 . RX_OUT_P_tb [5] $end
$var wire 1 / RX_OUT_P_tb [4] $end
$var wire 1 0 RX_OUT_P_tb [3] $end
$var wire 1 1 RX_OUT_P_tb [2] $end
$var wire 1 2 RX_OUT_P_tb [1] $end
$var wire 1 3 RX_OUT_P_tb [0] $end
$var wire 1 4 RX_OUT_V_tb $end
$var reg 1 5 PAR_EN_tb $end
$var reg 1 6 PAR_TYP_tb $end
$scope task initialize $end
$upscope $end
$scope task reset $end
$upscope $end
$scope task UART_TX $end
$var reg 8 7 test_input [7:0] $end
$var integer 32 8 k $end
$var reg 10 9 test_outputs [9:0] $end
$upscope $end
$scope task UART_RX $end
$var reg 10 : test_outs [9:0] $end
$var integer 32 ; i $end
$upscope $end
$scope task UART_RX_error $end
$var reg 10 < test_outs [9:0] $end
$var integer 32 = i $end
$upscope $end
$scope module DUT $end
$var wire 1 > TX_CLK $end
$var wire 1 ? TX_IN_P [7] $end
$var wire 1 @ TX_IN_P [6] $end
$var wire 1 A TX_IN_P [5] $end
$var wire 1 B TX_IN_P [4] $end
$var wire 1 C TX_IN_P [3] $end
$var wire 1 D TX_IN_P [2] $end
$var wire 1 E TX_IN_P [1] $end
$var wire 1 F TX_IN_P [0] $end
$var wire 1 G TX_IN_V $end
$var wire 1 H RST $end
$var wire 1 I RX_IN_S $end
$var wire 1 J prescale [5] $end
$var wire 1 K prescale [4] $end
$var wire 1 L prescale [3] $end
$var wire 1 M prescale [2] $end
$var wire 1 N prescale [1] $end
$var wire 1 O prescale [0] $end
$var wire 1 P RX_CLK $end
$var wire 1 * TX_OUT_S $end
$var wire 1 + TX_OUT_V $end
$var wire 1 , RX_OUT_P [7] $end
$var wire 1 - RX_OUT_P [6] $end
$var wire 1 . RX_OUT_P [5] $end
$var wire 1 / RX_OUT_P [4] $end
$var wire 1 0 RX_OUT_P [3] $end
$var wire 1 1 RX_OUT_P [2] $end
$var wire 1 2 RX_OUT_P [1] $end
$var wire 1 3 RX_OUT_P [0] $end
$var wire 1 4 RX_OUT_V $end
$var wire 1 Q PAR_EN $end
$var wire 1 R PAR_TYP $end
$scope module U_UART_TX $end
$var wire 1 ? P_DATA [7] $end
$var wire 1 @ P_DATA [6] $end
$var wire 1 A P_DATA [5] $end
$var wire 1 B P_DATA [4] $end
$var wire 1 C P_DATA [3] $end
$var wire 1 D P_DATA [2] $end
$var wire 1 E P_DATA [1] $end
$var wire 1 F P_DATA [0] $end
$var wire 1 Q PAR_EN $end
$var wire 1 G Data_Valid $end
$var wire 1 R PAR_TYP $end
$var wire 1 > CLK $end
$var wire 1 H RST $end
$var wire 1 * TX_OUT $end
$var wire 1 + busy $end
$var wire 1 S ser_done $end
$var wire 1 T ser_en $end
$var wire 1 U mux_sel [1] $end
$var wire 1 V mux_sel [0] $end
$var wire 1 W ser_data $end
$var wire 1 X par_bit $end
$scope module U_FSM $end
$var parameter 3 Y IDLE $end
$var parameter 3 Z START $end
$var parameter 3 [ SERIAL $end
$var parameter 3 \ STOP $end
$var parameter 3 ] PARITY $end
$var wire 1 S ser_done $end
$var wire 1 Q PAR_EN $end
$var wire 1 G Data_Valid $end
$var wire 1 > CLK $end
$var wire 1 H RST $end
$var reg 1 ^ ser_en $end
$var reg 1 _ busy $end
$var reg 2 ` mux_sel [1:0] $end
$var reg 3 a current_state [2:0] $end
$var reg 3 b next_state [2:0] $end
$upscope $end
$scope module U_MUX $end
$var parameter 1 c start_bit $end
$var parameter 1 d stop_bit $end
$var wire 1 U mux_sel [1] $end
$var wire 1 V mux_sel [0] $end
$var wire 1 W ser_data $end
$var wire 1 X par_bit $end
$var wire 1 > CLK $end
$var wire 1 H RST $end
$var reg 1 e TX_OUT $end
$var reg 1 f mux_out $end
$upscope $end
$scope module U_PARITY_CALC $end
$var wire 1 ? P_DATA [7] $end
$var wire 1 @ P_DATA [6] $end
$var wire 1 A P_DATA [5] $end
$var wire 1 B P_DATA [4] $end
$var wire 1 C P_DATA [3] $end
$var wire 1 D P_DATA [2] $end
$var wire 1 E P_DATA [1] $end
$var wire 1 F P_DATA [0] $end
$var wire 1 G Data_Valid $end
$var wire 1 R PAR_TYP $end
$var wire 1 Q PAR_EN $end
$var wire 1 > CLK $end
$var wire 1 H RST $end
$var reg 1 g par_bit $end
$var wire 1 + busy $end
$var reg 8 h par_data [7:0] $end
$upscope $end
$scope module U_SERIALIZER $end
$var wire 1 ? P_DATA [7] $end
$var wire 1 @ P_DATA [6] $end
$var wire 1 A P_DATA [5] $end
$var wire 1 B P_DATA [4] $end
$var wire 1 C P_DATA [3] $end
$var wire 1 D P_DATA [2] $end
$var wire 1 E P_DATA [1] $end
$var wire 1 F P_DATA [0] $end
$var wire 1 G Data_Valid $end
$var wire 1 T ser_en $end
$var wire 1 > CLK $end
$var wire 1 H RST $end
$var reg 1 i ser_done $end
$var reg 1 j ser_data $end
$var reg 5 k count [4:0] $end
$var wire 1 l count_success $end
$var wire 1 m ser_success $end
$var reg 8 n data [7:0] $end
$upscope $end
$upscope $end
$scope module U_UART_RX $end
$var wire 1 I RX_IN $end
$var wire 1 Q PAR_EN $end
$var wire 1 R PAR_TYP $end
$var wire 1 J prescale [5] $end
$var wire 1 K prescale [4] $end
$var wire 1 L prescale [3] $end
$var wire 1 M prescale [2] $end
$var wire 1 N prescale [1] $end
$var wire 1 O prescale [0] $end
$var wire 1 P CLK $end
$var wire 1 H RST $end
$var wire 1 4 data_valid $end
$var wire 1 , P_DATA [7] $end
$var wire 1 - P_DATA [6] $end
$var wire 1 . P_DATA [5] $end
$var wire 1 / P_DATA [4] $end
$var wire 1 0 P_DATA [3] $end
$var wire 1 1 P_DATA [2] $end
$var wire 1 2 P_DATA [1] $end
$var wire 1 3 P_DATA [0] $end
$var wire 1 o bit_cnt [3] $end
$var wire 1 p bit_cnt [2] $end
$var wire 1 q bit_cnt [1] $end
$var wire 1 r bit_cnt [0] $end
$var wire 1 s par_err $end
$var wire 1 t strt_glitch $end
$var wire 1 u stp_err $end
$var wire 1 v edge_cnt [5] $end
$var wire 1 w edge_cnt [4] $end
$var wire 1 x edge_cnt [3] $end
$var wire 1 y edge_cnt [2] $end
$var wire 1 z edge_cnt [1] $end
$var wire 1 { edge_cnt [0] $end
$var wire 1 | enable $end
$var wire 1 } dat_samp_en $end
$var wire 1 ~ par_chk_en $end
$var wire 1 !! strt_chk_en $end
$var wire 1 "! stp_chk_en $end
$var wire 1 #! sampled_bit $end
$var wire 1 $! deser_en $end
$var wire 1 %! from_parity $end
$var wire 1 &! parity_enable_delayed $end
$var wire 1 '! PAR_EN_delayed $end
$scope module U_FSM $end
$var parameter 3 (! IDLE $end
$var parameter 3 )! START $end
$var parameter 3 *! DATA $end
$var parameter 3 +! PARITY $end
$var parameter 3 ,! STOP $end
$var parameter 3 -! VALID $end
$var parameter 1 .! ON $end
$var parameter 1 /! CORRECT $end
$var parameter 1 0! INCORRECT $end
$var parameter 1 1! OFF $end
$var wire 1 I RX_IN $end
$var wire 1 Q PAR_EN $end
$var wire 1 v edge_cnt [5] $end
$var wire 1 w edge_cnt [4] $end
$var wire 1 x edge_cnt [3] $end
$var wire 1 y edge_cnt [2] $end
$var wire 1 z edge_cnt [1] $end
$var wire 1 { edge_cnt [0] $end
$var wire 1 o bit_cnt [3] $end
$var wire 1 p bit_cnt [2] $end
$var wire 1 q bit_cnt [1] $end
$var wire 1 r bit_cnt [0] $end
$var wire 1 s par_err $end
$var wire 1 t strt_glitch $end
$var wire 1 u stp_err $end
$var wire 1 P CLK $end
$var wire 1 H RST $end
$var wire 1 J prescale [5] $end
$var wire 1 K prescale [4] $end
$var wire 1 L prescale [3] $end
$var wire 1 M prescale [2] $end
$var wire 1 N prescale [1] $end
$var wire 1 O prescale [0] $end
$var reg 1 2! dat_samp_en $end
$var reg 1 3! enable $end
$var reg 1 4! par_chk_en $end
$var reg 1 5! strt_chk_en $end
$var reg 1 6! stp_chk_en $end
$var reg 1 7! deser_en $end
$var wire 1 4 data_valid $end
$var reg 1 8! from_parity $end
$var reg 3 9! current_state [2:0] $end
$var reg 3 :! next_state [2:0] $end
$var wire 1 ;! edge_6 $end
$var wire 1 <! edge_14 $end
$var wire 1 =! edge_30 $end
$var wire 1 >! edge_7 $end
$var wire 1 ?! edge_15 $end
$var wire 1 @! edge_31 $end
$var reg 1 A! delay_parity $end
$var reg 1 B! error_detected $end
$upscope $end
$scope module U_edge_bit_counter $end
$var wire 1 | enable $end
$var wire 1 P CLK $end
$var wire 1 H RST $end
$var reg 4 C! bit_cnt [3:0] $end
$var reg 6 D! edge_cnt [5:0] $end
$var wire 1 J prescale [5] $end
$var wire 1 K prescale [4] $end
$var wire 1 L prescale [3] $end
$var wire 1 M prescale [2] $end
$var wire 1 N prescale [1] $end
$var wire 1 O prescale [0] $end
$var wire 1 Q PAR_EN $end
$var wire 1 %! from_parity $end
$upscope $end
$scope module U_data_sampling $end
$var parameter 1 E! ZERO $end
$var parameter 3 F! ZEROS $end
$var parameter 1 G! ONE $end
$var wire 1 } dat_samp_en $end
$var wire 1 v edge_cnt [5] $end
$var wire 1 w edge_cnt [4] $end
$var wire 1 x edge_cnt [3] $end
$var wire 1 y edge_cnt [2] $end
$var wire 1 z edge_cnt [1] $end
$var wire 1 { edge_cnt [0] $end
$var wire 1 I RX_IN $end
$var wire 1 P CLK $end
$var wire 1 H RST $end
$var wire 1 J prescale [5] $end
$var wire 1 K prescale [4] $end
$var wire 1 L prescale [3] $end
$var wire 1 M prescale [2] $end
$var wire 1 N prescale [1] $end
$var wire 1 O prescale [0] $end
$var reg 1 H! sampled_bit $end
$var reg 3 I! test_bits [2:0] $end
$var reg 1 J! complete_sample_flag $end
$upscope $end
$scope module U_deserializer $end
$var parameter 8 K! ZEROS $end
$var wire 1 $! deser_en $end
$var wire 1 #! sampled_bit $end
$var wire 1 P CLK $end
$var wire 1 H RST $end
$var reg 8 L! P_DATA [7:0] $end
$var wire 1 o bit_cnt [3] $end
$var wire 1 p bit_cnt [2] $end
$var wire 1 q bit_cnt [1] $end
$var wire 1 r bit_cnt [0] $end
$var wire 1 Q PAR_EN $end
$var reg 5 M! counter [4:0] $end
$upscope $end
$scope module U_parity_check $end
$var parameter 1 N! EVEN $end
$var parameter 1 O! ODD $end
$var wire 1 ~ par_chk_en $end
$var wire 1 #! sampled_bit $end
$var wire 1 R PAR_TYP $end
$var wire 1 P CLK $end
$var wire 1 H RST $end
$var wire 1 , P_DATA [7] $end
$var wire 1 - P_DATA [6] $end
$var wire 1 . P_DATA [5] $end
$var wire 1 / P_DATA [4] $end
$var wire 1 0 P_DATA [3] $end
$var wire 1 1 P_DATA [2] $end
$var wire 1 2 P_DATA [1] $end
$var wire 1 3 P_DATA [0] $end
$var reg 1 P! par_err $end
$var wire 1 Q! test_parity_even $end
$var wire 1 R! test_parity_odd $end
$upscope $end
$scope module U_strt_check $end
$var wire 1 !! strt_chk_en $end
$var wire 1 #! sampled_bit $end
$var reg 1 S! strt_glitch $end
$var wire 1 P CLK $end
$var wire 1 H RST $end
$upscope $end
$scope module U_stop_check $end
$var wire 1 "! stp_chk_en $end
$var wire 1 #! sampled_bit $end
$var reg 1 T! stp_err $end
$var wire 1 P CLK $end
$var wire 1 H RST $end
$upscope $end
$upscope $end
$upscope $end
$scope module DUT_TX $end
$var wire 1 U! P_DATA [7] $end
$var wire 1 V! P_DATA [6] $end
$var wire 1 W! P_DATA [5] $end
$var wire 1 X! P_DATA [4] $end
$var wire 1 Y! P_DATA [3] $end
$var wire 1 Z! P_DATA [2] $end
$var wire 1 [! P_DATA [1] $end
$var wire 1 \! P_DATA [0] $end
$var wire 1 ]! PAR_EN $end
$var wire 1 ^! Data_Valid $end
$var wire 1 _! PAR_TYP $end
$var wire 1 `! CLK $end
$var wire 1 a! RST $end
$var wire 1 b! TX_OUT $end
$var wire 1 c! busy $end
$var wire 1 d! ser_done $end
$var wire 1 e! ser_en $end
$var wire 1 f! mux_sel [1] $end
$var wire 1 g! mux_sel [0] $end
$var wire 1 h! ser_data $end
$var wire 1 i! par_bit $end
$scope module U_FSM $end
$var parameter 3 j! IDLE $end
$var parameter 3 k! START $end
$var parameter 3 l! SERIAL $end
$var parameter 3 m! STOP $end
$var parameter 3 n! PARITY $end
$var wire 1 d! ser_done $end
$var wire 1 ]! PAR_EN $end
$var wire 1 ^! Data_Valid $end
$var wire 1 `! CLK $end
$var wire 1 a! RST $end
$var reg 1 o! ser_en $end
$var reg 1 p! busy $end
$var reg 2 q! mux_sel [1:0] $end
$var reg 3 r! current_state [2:0] $end
$var reg 3 s! next_state [2:0] $end
$upscope $end
$scope module U_MUX $end
$var parameter 1 t! start_bit $end
$var parameter 1 u! stop_bit $end
$var wire 1 f! mux_sel [1] $end
$var wire 1 g! mux_sel [0] $end
$var wire 1 h! ser_data $end
$var wire 1 i! par_bit $end
$var wire 1 `! CLK $end
$var wire 1 a! RST $end
$var reg 1 v! TX_OUT $end
$var reg 1 w! mux_out $end
$upscope $end
$scope module U_PARITY_CALC $end
$var wire 1 U! P_DATA [7] $end
$var wire 1 V! P_DATA [6] $end
$var wire 1 W! P_DATA [5] $end
$var wire 1 X! P_DATA [4] $end
$var wire 1 Y! P_DATA [3] $end
$var wire 1 Z! P_DATA [2] $end
$var wire 1 [! P_DATA [1] $end
$var wire 1 \! P_DATA [0] $end
$var wire 1 ^! Data_Valid $end
$var wire 1 _! PAR_TYP $end
$var wire 1 ]! PAR_EN $end
$var wire 1 `! CLK $end
$var wire 1 a! RST $end
$var reg 1 x! par_bit $end
$var wire 1 c! busy $end
$var reg 8 y! par_data [7:0] $end
$upscope $end
$scope module U_SERIALIZER $end
$var wire 1 U! P_DATA [7] $end
$var wire 1 V! P_DATA [6] $end
$var wire 1 W! P_DATA [5] $end
$var wire 1 X! P_DATA [4] $end
$var wire 1 Y! P_DATA [3] $end
$var wire 1 Z! P_DATA [2] $end
$var wire 1 [! P_DATA [1] $end
$var wire 1 \! P_DATA [0] $end
$var wire 1 ^! Data_Valid $end
$var wire 1 e! ser_en $end
$var wire 1 `! CLK $end
$var wire 1 a! RST $end
$var reg 1 z! ser_done $end
$var reg 1 {! ser_data $end
$var reg 5 |! count [4:0] $end
$var wire 1 }! count_success $end
$var wire 1 ~! ser_success $end
$var reg 8 !" data [7:0] $end
$upscope $end
$upscope $end
$scope module DUT_RX $end
$var wire 1 "" RX_IN $end
$var wire 1 #" PAR_EN $end
$var wire 1 $" PAR_TYP $end
$var wire 1 %" prescale [5] $end
$var wire 1 &" prescale [4] $end
$var wire 1 '" prescale [3] $end
$var wire 1 (" prescale [2] $end
$var wire 1 )" prescale [1] $end
$var wire 1 *" prescale [0] $end
$var wire 1 +" CLK $end
$var wire 1 ," RST $end
$var wire 1 -" data_valid $end
$var wire 1 ." P_DATA [7] $end
$var wire 1 /" P_DATA [6] $end
$var wire 1 0" P_DATA [5] $end
$var wire 1 1" P_DATA [4] $end
$var wire 1 2" P_DATA [3] $end
$var wire 1 3" P_DATA [2] $end
$var wire 1 4" P_DATA [1] $end
$var wire 1 5" P_DATA [0] $end
$var wire 1 6" bit_cnt [3] $end
$var wire 1 7" bit_cnt [2] $end
$var wire 1 8" bit_cnt [1] $end
$var wire 1 9" bit_cnt [0] $end
$var wire 1 :" par_err $end
$var wire 1 ;" strt_glitch $end
$var wire 1 <" stp_err $end
$var wire 1 =" edge_cnt [5] $end
$var wire 1 >" edge_cnt [4] $end
$var wire 1 ?" edge_cnt [3] $end
$var wire 1 @" edge_cnt [2] $end
$var wire 1 A" edge_cnt [1] $end
$var wire 1 B" edge_cnt [0] $end
$var wire 1 C" enable $end
$var wire 1 D" dat_samp_en $end
$var wire 1 E" par_chk_en $end
$var wire 1 F" strt_chk_en $end
$var wire 1 G" stp_chk_en $end
$var wire 1 H" sampled_bit $end
$var wire 1 I" deser_en $end
$var wire 1 J" from_parity $end
$var wire 1 K" parity_enable_delayed $end
$var wire 1 L" PAR_EN_delayed $end
$scope module U_FSM $end
$var parameter 3 M" IDLE $end
$var parameter 3 N" START $end
$var parameter 3 O" DATA $end
$var parameter 3 P" PARITY $end
$var parameter 3 Q" STOP $end
$var parameter 3 R" VALID $end
$var parameter 1 S" ON $end
$var parameter 1 T" CORRECT $end
$var parameter 1 U" INCORRECT $end
$var parameter 1 V" OFF $end
$var wire 1 "" RX_IN $end
$var wire 1 #" PAR_EN $end
$var wire 1 =" edge_cnt [5] $end
$var wire 1 >" edge_cnt [4] $end
$var wire 1 ?" edge_cnt [3] $end
$var wire 1 @" edge_cnt [2] $end
$var wire 1 A" edge_cnt [1] $end
$var wire 1 B" edge_cnt [0] $end
$var wire 1 6" bit_cnt [3] $end
$var wire 1 7" bit_cnt [2] $end
$var wire 1 8" bit_cnt [1] $end
$var wire 1 9" bit_cnt [0] $end
$var wire 1 :" par_err $end
$var wire 1 ;" strt_glitch $end
$var wire 1 <" stp_err $end
$var wire 1 +" CLK $end
$var wire 1 ," RST $end
$var wire 1 %" prescale [5] $end
$var wire 1 &" prescale [4] $end
$var wire 1 '" prescale [3] $end
$var wire 1 (" prescale [2] $end
$var wire 1 )" prescale [1] $end
$var wire 1 *" prescale [0] $end
$var reg 1 W" dat_samp_en $end
$var reg 1 X" enable $end
$var reg 1 Y" par_chk_en $end
$var reg 1 Z" strt_chk_en $end
$var reg 1 [" stp_chk_en $end
$var reg 1 \" deser_en $end
$var wire 1 -" data_valid $end
$var reg 1 ]" from_parity $end
$var reg 3 ^" current_state [2:0] $end
$var reg 3 _" next_state [2:0] $end
$var wire 1 `" edge_6 $end
$var wire 1 a" edge_14 $end
$var wire 1 b" edge_30 $end
$var wire 1 c" edge_7 $end
$var wire 1 d" edge_15 $end
$var wire 1 e" edge_31 $end
$var reg 1 f" delay_parity $end
$var reg 1 g" error_detected $end
$upscope $end
$scope module U_edge_bit_counter $end
$var wire 1 C" enable $end
$var wire 1 +" CLK $end
$var wire 1 ," RST $end
$var reg 4 h" bit_cnt [3:0] $end
$var reg 6 i" edge_cnt [5:0] $end
$var wire 1 %" prescale [5] $end
$var wire 1 &" prescale [4] $end
$var wire 1 '" prescale [3] $end
$var wire 1 (" prescale [2] $end
$var wire 1 )" prescale [1] $end
$var wire 1 *" prescale [0] $end
$var wire 1 #" PAR_EN $end
$var wire 1 J" from_parity $end
$upscope $end
$scope module U_data_sampling $end
$var parameter 1 j" ZERO $end
$var parameter 3 k" ZEROS $end
$var parameter 1 l" ONE $end
$var wire 1 D" dat_samp_en $end
$var wire 1 =" edge_cnt [5] $end
$var wire 1 >" edge_cnt [4] $end
$var wire 1 ?" edge_cnt [3] $end
$var wire 1 @" edge_cnt [2] $end
$var wire 1 A" edge_cnt [1] $end
$var wire 1 B" edge_cnt [0] $end
$var wire 1 "" RX_IN $end
$var wire 1 +" CLK $end
$var wire 1 ," RST $end
$var wire 1 %" prescale [5] $end
$var wire 1 &" prescale [4] $end
$var wire 1 '" prescale [3] $end
$var wire 1 (" prescale [2] $end
$var wire 1 )" prescale [1] $end
$var wire 1 *" prescale [0] $end
$var reg 1 m" sampled_bit $end
$var reg 3 n" test_bits [2:0] $end
$var reg 1 o" complete_sample_flag $end
$upscope $end
$scope module U_deserializer $end
$var parameter 8 p" ZEROS $end
$var wire 1 I" deser_en $end
$var wire 1 H" sampled_bit $end
$var wire 1 +" CLK $end
$var wire 1 ," RST $end
$var reg 8 q" P_DATA [7:0] $end
$var wire 1 6" bit_cnt [3] $end
$var wire 1 7" bit_cnt [2] $end
$var wire 1 8" bit_cnt [1] $end
$var wire 1 9" bit_cnt [0] $end
$var wire 1 #" PAR_EN $end
$var reg 5 r" counter [4:0] $end
$upscope $end
$scope module U_parity_check $end
$var parameter 1 s" EVEN $end
$var parameter 1 t" ODD $end
$var wire 1 E" par_chk_en $end
$var wire 1 H" sampled_bit $end
$var wire 1 $" PAR_TYP $end
$var wire 1 +" CLK $end
$var wire 1 ," RST $end
$var wire 1 ." P_DATA [7] $end
$var wire 1 /" P_DATA [6] $end
$var wire 1 0" P_DATA [5] $end
$var wire 1 1" P_DATA [4] $end
$var wire 1 2" P_DATA [3] $end
$var wire 1 3" P_DATA [2] $end
$var wire 1 4" P_DATA [1] $end
$var wire 1 5" P_DATA [0] $end
$var reg 1 u" par_err $end
$var wire 1 v" test_parity_even $end
$var wire 1 w" test_parity_odd $end
$upscope $end
$scope module U_strt_check $end
$var wire 1 F" strt_chk_en $end
$var wire 1 H" sampled_bit $end
$var reg 1 x" strt_glitch $end
$var wire 1 +" CLK $end
$var wire 1 ," RST $end
$upscope $end
$scope module U_stop_check $end
$var wire 1 G" stp_chk_en $end
$var wire 1 H" sampled_bit $end
$var reg 1 y" stp_err $end
$var wire 1 +" CLK $end
$var wire 1 ," RST $end
$upscope $end
$upscope $end
$upscope $end
$enddefinitions $end
#0
$dumpvars
0#
b0 $
0%
1&
1'
b1000 (
0)
05
06
0^
0_
b1 `
bx a
b0 b
xe
1f
xg
bx h
xi
xj
bx k
bx n
02!
03!
04!
05!
06!
07!
08!
bx 9!
b0 :!
xA!
xB!
bx C!
bx D!
xH!
bx I!
xJ!
bx L!
bx M!
xP!
0S!
0T!
0o!
0p!
b1 q!
bx r!
b0 s!
xv!
1w!
xx!
bx y!
xz!
x{!
bx |!
bx !"
xW"
xX"
xY"
xZ"
x["
x\"
x]"
bx ^"
bx _"
xf"
xg"
bx h"
bx i"
xm"
bx n"
xo"
bx q"
bx r"
xu"
xx"
xy"
bx 7
bx 9
bx :
bx <
b1010000 !
b1010 "
b0 Y
b1 Z
b11 [
b10 \
b110 ]
b0 c
b1 d
b0 (!
b1 )!
b11 *!
b10 +!
b110 ,!
b111 -!
b1 .!
b1 /!
b0 0!
b0 1!
b0 E!
b0 F!
b1 G!
b0 K!
b0 N!
b1 O!
b0 j!
b1 k!
b11 l!
b10 m!
b110 n!
b0 t!
b1 u!
b0 M"
b1 N"
b11 O"
b10 P"
b110 Q"
b111 R"
b1 S"
b1 T"
b0 U"
b0 V"
b0 j"
b0 k"
b1 l"
b0 p"
b0 s"
b1 t"
bx 8
bx ;
bx =
x*
0+
x3
x2
x1
x0
x/
x.
x-
x,
x4
zQ
zR
xS
0T
1V
0U
xW
xX
xl
xm
xr
xq
xp
xo
xs
0t
0u
x{
xz
xy
xx
xw
xv
0|
0}
0~
0!!
0"!
x#!
0$!
0%!
z&!
z'!
x;!
0<!
0=!
x>!
0?!
0@!
xQ!
xR!
xd!
0e!
1g!
0f!
xh!
xi!
x}!
x~!
x9"
x8"
x7"
x6"
x:"
x;"
x<"
xB"
xA"
x@"
x?"
x>"
x="
xC"
xD"
xE"
xF"
xG"
xH"
xI"
xJ"
zK"
zL"
x`"
xa"
xb"
xc"
xd"
xe"
xv"
xw"
0$"
0#"
0_!
0]!
0P
0O
0N
0M
1L
0K
0J
1I
1H
0G
0F
0E
0D
0C
0B
0A
0@
0?
0>
z\!
z[!
zZ!
zY!
zX!
zW!
zV!
zU!
z^!
z`!
za!
xb!
0c!
z""
z*"
z)"
z("
z'"
z&"
z%"
z+"
z,"
x-"
x5"
x4"
x3"
x2"
x1"
x0"
x/"
x."
$end
#5000
1)
1P
b0 9!
0A!
0P!
0s
#10000
0)
0P
#15000
1)
1P
0B!
14
#20000
0)
0P
#25000
1)
1P
#30000
0)
0P
#35000
1)
1P
#40000
1#
0)
1>
0P
b0 a
1e
0i
b1 k
1*
0m
0l
0S
#45000
1)
1P
#50000
0)
0P
#55000
1)
1P
#60000
0)
0P
#65000
1)
1P
#70000
0)
0P
#75000
1)
1P
#80000
0&
b1011010 7
b1011010 $
1%
b1010111010 :
b0 ;
0'
0#
0)
1E
1C
1B
1@
0H
1G
0I
0>
0P
b1 :!
13!
12!
b1 b
b0 `
1_
1|
1}
1+
0V
0f
0e
b0 h
0g
b0 n
b0 C!
b0 D!
0H!
b0 I!
0J!
b0 L!
0*
03
02
01
00
0/
0.
0-
0,
1R!
0Q!
0X
0{
0z
0y
0x
0w
0v
0r
0q
0p
0o
0#!
0>!
0;!
#85000
1)
1P
#90000
1&
0)
1H
0P
#95000
1)
1P
b1 9!
b1 D!
1{
#100000
0)
0P
#105000
1)
1P
b10 D!
0{
1z
#110000
0)
0P
#115000
1)
1P
b11 D!
1{
#120000
1#
0)
1>
0P
b1 a
b1011010 h
b1011010 n
0j
0W
b1 `
0_
b0 b
b11 b
b10 `
1_
1^
1T
1U
#125000
1)
1P
b100 D!
0{
0z
1y
#130000
0)
0P
#135000
1)
1P
b101 D!
1{
#140000
0)
0P
#145000
1)
1P
b110 D!
1J!
0{
1z
1;!
15!
1!!
#150000
0)
0P
#155000
1)
1P
b111 D!
1{
1>!
0;!
05!
b11 :!
0!!
#160000
0%
b0 8
bx0 9
b1 ;
1'
0#
0)
0G
1I
0>
0P
0^
b1 `
0_
b0 b
b11 b
b10 `
1_
1^
#165000
1)
1P
b11 9!
b1000 D!
b1 C!
b0 D!
1r
0{
0z
0y
0>!
#170000
0)
0P
#175000
1)
1P
b1 D!
1{
#180000
0)
0P
#185000
1)
1P
b10 D!
0{
1z
#190000
0)
0P
#195000
1)
1P
b11 D!
1{
#200000
1#
0)
1>
0P
b11 a
1j
b10 k
1W
1f
0^
b1 `
0_
b0 b
b11 b
b10 `
1_
1^
#205000
1)
1P
b100 D!
b1 I!
0{
0z
1y
#210000
0)
0P
#215000
1)
1P
b101 D!
b11 I!
1{
#220000
0)
0P
#225000
1)
1P
b110 D!
b111 I!
1H!
0{
1z
1#!
1;!
#230000
0)
0P
#235000
1)
1P
b111 D!
1{
1>!
0;!
17!
1$!
#240000
b1 8
bx00 9
b10 ;
0'
0#
0)
0I
0>
0P
#245000
1)
1P
b1000 D!
b10 C!
b0 D!
b1 L!
13
0R!
1Q!
0r
1q
0{
0z
0y
0>!
07!
0$!
#250000
0)
0P
#255000
1)
1P
b1 D!
1{
#260000
0)
0P
#265000
1)
1P
b10 D!
0{
1z
#270000
0)
0P
#275000
1)
1P
b11 D!
1{
#280000
1#
0)
1>
0P
1e
0j
b11 k
1*
0W
0f
#285000
1)
1P
b100 D!
b110 I!
0{
0z
1y
#290000
0)
0P
#295000
1)
1P
b101 D!
b100 I!
1{
#300000
0)
0P
#305000
1)
1P
b110 D!
b0 I!
0H!
0{
1z
0#!
1;!
#310000
0)
0P
#315000
1)
1P
b111 D!
1{
1>!
0;!
17!
1$!
#320000
b10 8
bx100 9
b11 ;
1'
0#
0)
1I
0>
0P
#325000
1)
1P
b1000 D!
b11 C!
b0 D!
1r
0{
0z
0y
0>!
07!
0$!
#330000
0)
0P
#335000
1)
1P
b1 D!
1{
#340000
0)
0P
#345000
1)
1P
b10 D!
0{
1z
#350000
0)
0P
#355000
1)
1P
b11 D!
1{
#360000
1#
0)
1>
0P
0e
1j
b100 k
0*
1W
1f
#365000
1)
1P
b100 D!
b1 I!
0{
0z
1y
#370000
0)
0P
#375000
1)
1P
b101 D!
b11 I!
1{
#380000
0)
0P
#385000
1)
1P
b110 D!
b111 I!
1H!
0{
1z
1#!
1;!
#390000
0)
0P
#395000
1)
1P
b111 D!
1{
1>!
0;!
17!
1$!
#400000
b11 8
bx0100 9
b100 ;
0#
0)
0>
0P
#405000
1)
1P
b1000 D!
b100 C!
b0 D!
b101 L!
11
1R!
0Q!
0r
0q
1p
0{
0z
0y
0>!
07!
0$!
#410000
0)
0P
#415000
1)
1P
b1 D!
1{
#420000
0)
0P
#425000
1)
1P
b10 D!
0{
1z
#430000
0)
0P
#435000
1)
1P
b11 D!
1{
#440000
1#
0)
1>
0P
1e
b101 k
1*
#445000
1)
1P
b100 D!
0{
0z
1y
#450000
0)
0P
#455000
1)
1P
b101 D!
1{
#460000
0)
0P
#465000
1)
1P
b110 D!
0{
1z
1;!
#470000
0)
0P
#475000
1)
1P
b111 D!
1{
1>!
0;!
17!
1$!
#480000
b100 8
bx10100 9
b101 ;
0#
0)
0>
0P
#485000
1)
1P
b1000 D!
b101 C!
b0 D!
b1101 L!
10
0R!
1Q!
1r
0{
0z
0y
0>!
07!
0$!
#490000
0)
0P
#495000
1)
1P
b1 D!
1{
#500000
0)
0P
#505000
1)
1P
b10 D!
0{
1z
#510000
0)
0P
#515000
1)
1P
b11 D!
1{
#520000
1#
0)
1>
0P
0j
b110 k
0W
0f
#525000
1)
1P
b100 D!
0{
0z
1y
#530000
0)
0P
#535000
1)
1P
b101 D!
1{
#540000
0)
0P
#545000
1)
1P
b110 D!
0{
1z
1;!
#550000
0)
0P
#555000
1)
1P
b111 D!
1{
1>!
0;!
17!
1$!
#560000
b101 8
bx110100 9
b110 ;
0'
0#
0)
0I
0>
0P
#565000
1)
1P
b1000 D!
b110 C!
b0 D!
b11101 L!
1/
1R!
0Q!
0r
1q
0{
0z
0y
0>!
07!
0$!
#570000
0)
0P
#575000
1)
1P
b1 D!
1{
#580000
0)
0P
#585000
1)
1P
b10 D!
0{
1z
#590000
0)
0P
#595000
1)
1P
b11 D!
1{
